aiofiles==0.7.0
alembic==1.0.10
aniso8601==8.0.0
asgiref==3.4.1
async==0.6.2
attrs==21.2.0
bcrypt==3.1.7
beautifulsoup4==4.9.3
bidict==0.21.2
bleach==3.1.0
blinker==1.4
bs4==0.0.1
cachelib==0.2.0
certifi==2019.11.28
cffi==1.13.2
chardet==3.0.4
click==8.0.1
colorama==0.4.4
decorator==4.4.1
elasticsearch==7.13.3
Faker==2.0.4
Flask==2.0.1
Flask-Assets==0.12
Flask-Bcrypt==0.7.1
Flask-Cache==0.13.1
Flask-Caching==1.10.1
Flask-CKEditor==0.4.3
Flask-Compress==1.4.0
Flask-DebugToolbar==0.11.0
Flask-gzip==0.2
Flask-HTTPAuth==3.3.0
Flask-JWT-Extended==4.2.1
Flask-Login==0.4.1
Flask-Mail==0.9.1
Flask-Migrate==2.4.0
Flask-Moment==0.8.0
Flask-PageDown==0.2.2
Flask-ReCaptcha==0.4.2
Flask-RESTful==0.3.7
Flask-RQ==0.2
Flask-Script==2.0.6
Flask-SendGrid==0.7.1
Flask-Share==0.1.1
Flask-SocketIO==5.1.1
Flask-SQLAlchemy==2.4.0
Flask-SSLify==0.1.5
Flask-Uploads==0.2.1
flask-whooshalchemy3==0.2.0
flask-whooshee==0.7.0
Flask-WTF==0.14.2
gevent==21.8.0
greenlet==1.1.1
gunicorn==20.1.0
h11==0.12.0
h2==4.0.0
honcho==1.0.1
hpack==4.0.0
Hypercorn==0.11.2
hyperframe==6.0.1
idna==2.8
importlib-metadata==4.6.1
infinity==1.4
intervals==0.8.1
itsdangerous==2.0.1
Jinja2==3.0.1
jsonpickle==1.2
jsonschema==3.2.0
Mako==1.0.10
MarkupSafe==2.0.1
messagebird==1.5.0
numpy==1.21.2
opencv-contrib-python==4.5.3.56
opencv-python==4.5.3.56
pandas==1.1.5
pbr==3.1.1
pdfkit==0.6.1
Pillow==8.3.2
priority==2.0.0
psycogreen==1.0.2
psycopg2-binary==2.9.1
pycparser==2.19
PyJWT==2.1.0
pyotp==2.6.0
pyrsistent==0.18.0
python-dateutil==2.8.0
python-editor==1.0.4
python-engineio==4.2.0
python-http-client==3.2.1
python-socketio==5.3.0
pytz==2019.3
Quart==0.15.1
quart-openapi==1.7.2
raygun4py==4.3.0
redis==3.2.1
requests==2.22.0
rq==1.0
sendgrid==6.1.0
simplejson==3.17.0
six==1.12.0
soupsieve==2.2.1
SQLAlchemy==1.3.3
sqlalchemy-mptt==0.2.4
SQLAlchemy-Utils==0.35.0
text-unidecode==1.3
toml==0.10.2
twilio==6.35.1
typing-extensions==3.10.0.0
urllib3==1.25.7
uvicorn==0.15.0
validators==0.14.0
virtualenv==16.5.0
webassets==0.12.1
webencodings==0.5.1
websocket-client==1.1.0
Werkzeug==2.0.1
Whoosh==2.7.4
wsproto==1.0.0
WTForms==2.2.1
WTForms-Alchemy==0.16.9
WTForms-Components==0.10.4
wtforms-html5==0.1.3
zipp==3.5.0
zope.event==4.5.0
zope.interface==5.4.0
